%YAML 1.1
%TAG !u! tag:unity3d.com,2011:
--- !u!74 &7400000
AnimationClip:
  m_ObjectHideFlags: 0
  m_PrefabParentObject: {fileID: 0}
  m_PrefabInternal: {fileID: 0}
  m_Name: koiAni
  serializedVersion: 6
  m_Legacy: 0
  m_Compressed: 0
  m_UseHighQualityCurve: 1
  m_RotationCurves: []
  m_CompressedRotationCurves: []
  m_EulerCurves: []
  m_PositionCurves: []
  m_ScaleCurves: []
  m_FloatCurves: []
  m_PPtrCurves:
  - curve:
    - time: 0
      value: {fileID: 21300000, guid: 8ae24b73d5a2e497690eb16e0e941f50, type: 3}
    - time: 0.083333336
      value: {fileID: 21300000, guid: 2a6fe4cc10ce7469aa11d83e6f840712, type: 3}
    - time: 0.16666667
      value: {fileID: 21300000, guid: 0c2923b01e3474528beb713f8c8db336, type: 3}
    - time: 0.25
      value: {fileID: 21300000, guid: 0843c4c2303a041919f0b6215cea7336, type: 3}
    - time: 0.33333334
      value: {fileID: 21300000, guid: b71bdd4fab5c448199e7f152825bda03, type: 3}
    - time: 0.41666666
      value: {fileID: 21300000, guid: 6f94a9418e1644cdb85411fc2150a5f6, type: 3}
    - time: 0.5
      value: {fileID: 21300000, guid: 2eca558a78f424873817fc061b3a0a1a, type: 3}
    - time: 0.5833333
      value: {fileID: 21300000, guid: d0df9e9c586174f1abc7738a0c30fd21, type: 3}
    - time: 0.6666667
      value: {fileID: 21300000, guid: d0df9e9c586174f1abc7738a0c30fd21, type: 3}
    - time: 0.75
      value: {fileID: 21300000, guid: 2eca558a78f424873817fc061b3a0a1a, type: 3}
    - time: 0.8333333
      value: {fileID: 21300000, guid: 6f94a9418e1644cdb85411fc2150a5f6, type: 3}
    - time: 0.9166667
      value: {fileID: 21300000, guid: b71bdd4fab5c448199e7f152825bda03, type: 3}
    - time: 1
      value: {fileID: 21300000, guid: 0843c4c2303a041919f0b6215cea7336, type: 3}
    - time: 1.0833334
      value: {fileID: 21300000, guid: 0c2923b01e3474528beb713f8c8db336, type: 3}
    - time: 1.1666666
      value: {fileID: 21300000, guid: 2a6fe4cc10ce7469aa11d83e6f840712, type: 3}
    - time: 1.25
      value: {fileID: 21300000, guid: 8ae24b73d5a2e497690eb16e0e941f50, type: 3}
    attribute: m_Sprite
    path: 
    classID: 212
    script: {fileID: 0}
  m_SampleRate: 60
  m_WrapMode: 0
  m_Bounds:
    m_Center: {x: 0, y: 0, z: 0}
    m_Extent: {x: 0, y: 0, z: 0}
  m_ClipBindingConstant:
    genericBindings:
    - serializedVersion: 2
      path: 0
      attribute: 0
      script: {fileID: 0}
      typeID: 212
      customType: 23
      isPPtrCurve: 1
    pptrCurveMapping:
    - {fileID: 21300000, guid: 8ae24b73d5a2e497690eb16e0e941f50, type: 3}
    - {fileID: 21300000, guid: 2a6fe4cc10ce7469aa11d83e6f840712, type: 3}
    - {fileID: 21300000, guid: 0c2923b01e3474528beb713f8c8db336, type: 3}
    - {fileID: 21300000, guid: 0843c4c2303a041919f0b6215cea7336, type: 3}
    - {fileID: 21300000, guid: b71bdd4fab5c448199e7f152825bda03, type: 3}
    - {fileID: 21300000, guid: 6f94a9418e1644cdb85411fc2150a5f6, type: 3}
    - {fileID: 21300000, guid: 2eca558a78f424873817fc061b3a0a1a, type: 3}
    - {fileID: 21300000, guid: d0df9e9c586174f1abc7738a0c30fd21, type: 3}
    - {fileID: 21300000, guid: d0df9e9c586174f1abc7738a0c30fd21, type: 3}
    - {fileID: 21300000, guid: 2eca558a78f424873817fc061b3a0a1a, type: 3}
    - {fileID: 21300000, guid: 6f94a9418e1644cdb85411fc2150a5f6, type: 3}
    - {fileID: 21300000, guid: b71bdd4fab5c448199e7f152825bda03, type: 3}
    - {fileID: 21300000, guid: 0843c4c2303a041919f0b6215cea7336, type: 3}
    - {fileID: 21300000, guid: 0c2923b01e3474528beb713f8c8db336, type: 3}
    - {fileID: 21300000, guid: 2a6fe4cc10ce7469aa11d83e6f840712, type: 3}
    - {fileID: 21300000, guid: 8ae24b73d5a2e497690eb16e0e941f50, type: 3}
  m_AnimationClipSettings:
    serializedVersion: 2
    m_AdditiveReferencePoseClip: {fileID: 0}
    m_AdditiveReferencePoseTime: 0
    m_StartTime: 0
    m_StopTime: 1.2666667
    m_OrientationOffsetY: 0
    m_Level: 0
    m_CycleOffset: 0
    m_HasAdditiveReferencePose: 0
    m_LoopTime: 1
    m_LoopBlend: 0
    m_LoopBlendOrientation: 0
    m_LoopBlendPositionY: 0
    m_LoopBlendPositionXZ: 0
    m_KeepOriginalOrientation: 0
    m_KeepOriginalPositionY: 1
    m_KeepOriginalPositionXZ: 0
    m_HeightFromFeet: 0
    m_Mirror: 0
  m_EditorCurves: []
  m_EulerEditorCurves: []
  m_HasGenericRootTransform: 0
  m_HasMotionFloatCurves: 0
  m_GenerateMotionCurves: 0
  m_Events: []
